OFF
8 6 0
-0.273958044287 0.119173918318 -0.055547881718
0.265028566782 0.119173918318 0.0888731454492
-0.382250252056 1.93150223882 0.34860413974
0.156736359014 1.93150223882 0.493025166907
-0.743023129611 -0.299235042762 1.69502684877
-0.204036518542 -0.299235042762 1.83944787594
-0.85131533738 1.51309327774 2.09917887023
-0.312328726311 1.51309327774 2.24359989739
4 2 3 1 0 
4 1 5 4 0 
4 4 6 2 0 
4 2 6 7 3 
4 7 6 4 5 
4 7 5 1 3 
